{
"user": "sugar1qglu77tcpxfg3qrsrk797nvhy7fm9stvjxwwwy6.debug", 
"url": "stratum+tcps://stratum-na.rplant.xyz:17042", 
"pass": "x", 
"algo": "yespowerSUGAR", 
"no-color": true, 
"no-extranonce": true
}